<?xml version="1.0" encoding="UTF-8"?>
<svg id="Layer_1" data-name="Layer 1" xmlns="http://www.w3.org/2000/svg" xmlns:xlink="http://www.w3.org/1999/xlink" viewBox="0 0 877.107251977919987 797.079643143065368">
  <defs>
    <style>
      .cls-1 {
        fill: url(#linear-gradient-17);
      }

      .cls-2 {
        fill: url(#linear-gradient-18);
      }

      .cls-3 {
        stroke: url(#linear-gradient-3);
      }

      .cls-3, .cls-4, .cls-5 {
        fill: #f5ebe0;
        stroke-width: 1.075469970703125px;
      }

      .cls-6 {
        fill: url(#linear-gradient-20);
      }

      .cls-7 {
        fill: url(#linear-gradient-6);
      }

      .cls-8 {
        fill: url(#linear-gradient-11);
      }

      .cls-9 {
        fill: url(#linear-gradient-10);
      }

      .cls-10 {
        stroke: url(#linear-gradient-4);
      }

      .cls-10, .cls-11, .cls-12, .cls-13 {
        fill: none;
      }

      .cls-10, .cls-12 {
        stroke-width: 2.15093994140625px;
      }

      .cls-14 {
        fill: url(#linear-gradient-16);
      }

      .cls-4 {
        stroke: url(#linear-gradient-2);
      }

      .cls-15 {
        fill: url(#linear-gradient-21);
      }

      .cls-16 {
        fill: url(#linear-gradient-5);
      }

      .cls-17 {
        fill: url(#linear-gradient-7);
      }

      .cls-11 {
        stroke: url(#linear-gradient-14);
      }

      .cls-11, .cls-13 {
        stroke-width: 1.613209962844849px;
      }

      .cls-18 {
        fill: url(#linear-gradient-24);
      }

      .cls-12 {
        stroke: url(#linear-gradient-15);
      }

      .cls-19 {
        fill: url(#linear-gradient-9);
      }

      .cls-20 {
        fill: url(#linear-gradient-22);
      }

      .cls-5 {
        stroke: url(#linear-gradient);
      }

      .cls-13 {
        stroke: url(#linear-gradient-25);
      }

      .cls-21 {
        fill: url(#linear-gradient-23);
      }

      .cls-22 {
        fill: url(#linear-gradient-19);
      }

      .cls-23 {
        fill: url(#linear-gradient-8);
      }

      .cls-24 {
        fill: url(#linear-gradient-12);
      }

      .cls-25 {
        fill: url(#linear-gradient-13);
      }

      .cls-26 {
        fill: url(#linear-gradient-26);
      }
    </style>
    <linearGradient id="linear-gradient" x1="-179.599665015223763" y1="659.84173702791395" x2="-179.599665015223735" y2="379.259395710395836" gradientTransform="translate(424.5 918.579643143066278) scale(1 -1)" gradientUnits="userSpaceOnUse">
      <stop offset="0" stop-color="#f5ebe0" stop-opacity=".850000023841858"/>
      <stop offset=".000099999997765" stop-color="#f5ebe0" stop-opacity=".899999976158142"/>
      <stop offset="1" stop-color="#f5ebe0"/>
    </linearGradient>
    <linearGradient id="linear-gradient-2" x1="6.160960895860626" y1="656.529972340232234" x2="6.160960895860639" y2="444.707525556898929" gradientTransform="translate(424.5 918.579643143066278) scale(1 -1)" gradientUnits="userSpaceOnUse">
      <stop offset=".000099999997765" stop-color="#f5ebe0" stop-opacity=".899999976158142"/>
      <stop offset="1" stop-color="#f5ebe0"/>
    </linearGradient>
    <linearGradient id="linear-gradient-3" x1="218.774222433378782" y1="658.411323457929939" x2="218.774222433378782" y2="433.401335650102624" gradientTransform="translate(424.5 918.579643143066278) scale(1 -1)" gradientUnits="userSpaceOnUse">
      <stop offset="1" stop-color="#f5ebe0"/>
      <stop offset="1" stop-color="#000"/>
    </linearGradient>
    <linearGradient id="linear-gradient-4" x1="-143.929784174062661" y1="960.579643143063549" x2="-143.929784174062604" y2="163.5" gradientTransform="translate(286.729261255264646 -163.5) rotate(-180) scale(1 -1)" gradientUnits="userSpaceOnUse">
      <stop offset="0" stop-color="#f5ebe0" stop-opacity=".850000023841858"/>
      <stop offset=".000099999997765" stop-color="#f5ebe0" stop-opacity=".800000011920929"/>
      <stop offset=".338542022705078" stop-color="#f5ebe0" stop-opacity=".81352299451828"/>
      <stop offset=".640625" stop-color="#f5ebe0" stop-opacity=".898685991764069"/>
      <stop offset="1" stop-color="#f5ebe0"/>
    </linearGradient>
    <linearGradient id="linear-gradient-5" x1="-363.451976740800092" y1="163.978663436028" x2="-363.451976740800092" y2="523.050990877513414" gradientTransform="translate(424.5 918.579643143066278) scale(1 -1)" gradientUnits="userSpaceOnUse">
      <stop offset="0" stop-color="#f5ebe0"/>
      <stop offset=".000099999997765" stop-color="#f5ebe0" stop-opacity=".800000011920929"/>
      <stop offset=".338542022705078" stop-color="#f5ebe0" stop-opacity=".867694973945618"/>
      <stop offset=".666667022705078" stop-color="#f5ebe0" stop-opacity=".93332701921463"/>
      <stop offset="1" stop-color="#f5ebe0"/>
    </linearGradient>
    <linearGradient id="linear-gradient-6" x1="-417.576237601177127" y1="163.978663436003444" x2="-417.576237601177127" y2="523.050990877523873" xlink:href="#linear-gradient-5"/>
    <linearGradient id="linear-gradient-7" x1="-398.095617808363386" y1="163.978663436033457" x2="-398.095617808363386" y2="523.050990877515119" xlink:href="#linear-gradient-5"/>
    <linearGradient id="linear-gradient-8" x1="-348.396557424082857" y1="163.978663436041643" x2="-348.396557424082857" y2="523.050990877510912" xlink:href="#linear-gradient-5"/>
    <linearGradient id="linear-gradient-9" x1="-392.614960406992395" y1="163.978663436039824" x2="-392.614960406992395" y2="523.050990877509093" xlink:href="#linear-gradient-5"/>
    <linearGradient id="linear-gradient-10" x1="-317.532646105513777" y1="163.978663436044371" x2="-317.532646105513777" y2="523.050990877504091" xlink:href="#linear-gradient-5"/>
    <linearGradient id="linear-gradient-11" x1="-277.211060263134641" y1="163.978663436039824" x2="-277.211060263134641" y2="523.050990877513641" xlink:href="#linear-gradient-5"/>
    <linearGradient id="linear-gradient-12" x1="-281.399821310990774" y1="163.978663436035276" x2="-281.399821310990774" y2="523.05099087755525" xlink:href="#linear-gradient-5"/>
    <linearGradient id="linear-gradient-13" x1="-322.025443484296375" y1="163.978663436039824" x2="-322.025443484296375" y2="523.050990877518075" xlink:href="#linear-gradient-5"/>
    <linearGradient id="linear-gradient-14" x1="-335.232739776361996" y1="164.38981878573577" x2="-335.232739776361996" y2="522.984179269287552" gradientTransform="translate(424.5 918.579643143066278) scale(1 -1)" gradientUnits="userSpaceOnUse">
      <stop offset="0" stop-color="#f5ebe0" stop-opacity=".850000023841858"/>
      <stop offset=".000099999997765" stop-color="#f5ebe0" stop-opacity=".400000005960464"/>
      <stop offset=".223957996368408" stop-color="#f5ebe0" stop-opacity=".5"/>
      <stop offset=".375" stop-color="#f5ebe0" stop-opacity=".579032003879547"/>
      <stop offset=".546875" stop-color="#f5ebe0" stop-opacity=".600000023841858"/>
      <stop offset=".744792022705078" stop-color="#f5ebe0" stop-opacity=".699999988079071"/>
      <stop offset=".864582977294922" stop-color="#f5ebe0" stop-opacity=".800000011920929"/>
      <stop offset=".999899978637695" stop-color="#f5ebe0"/>
      <stop offset="1" stop-color="#b4933f"/>
      <stop offset="1" stop-color="#f5ebe0"/>
    </linearGradient>
    <linearGradient id="linear-gradient-15" x1="21.948416971749793" y1="918.579643143065368" x2="21.948416971749843" y2="121.500000000000909" gradientTransform="translate(424.5 918.579643143066278) scale(1 -1)" gradientUnits="userSpaceOnUse">
      <stop offset="0" stop-color="#f5ebe0" stop-opacity=".850000023841858"/>
      <stop offset=".000099999997765" stop-color="#f5ebe0" stop-opacity=".800000011920929"/>
      <stop offset=".270832977294922" stop-color="#f5ebe0" stop-opacity=".854157984256744"/>
      <stop offset=".630208015441895" stop-color="#f5ebe0" stop-opacity=".926047027111053"/>
      <stop offset=".999899978637695" stop-color="#f5ebe0"/>
      <stop offset="1" stop-color="#b4933f"/>
      <stop offset="1" stop-color="#f5ebe0"/>
    </linearGradient>
    <linearGradient id="linear-gradient-16" x1="391.559089361095175" y1="876.100982377115542" x2="391.559089361095175" y2="517.028654935637974" gradientTransform="translate(424.5 918.579643143066278) scale(1 -1)" gradientUnits="userSpaceOnUse">
      <stop offset="0" stop-color="#f5ebe0" stop-opacity=".899999976158142"/>
      <stop offset=".000099999997765" stop-color="#f5ebe0" stop-opacity=".899999976158142"/>
      <stop offset=".28125" stop-color="#f5ebe0" stop-opacity=".950933992862701"/>
      <stop offset=".666667022705078" stop-color="#f5ebe0" stop-opacity=".977244973182678"/>
      <stop offset="1" stop-color="#f5ebe0"/>
    </linearGradient>
    <linearGradient id="linear-gradient-17" x1="445.683298661308982" y1="876.100982377117361" x2="445.683298661308982" y2="517.028654935633767" xlink:href="#linear-gradient-16"/>
    <linearGradient id="linear-gradient-18" x1="426.202262077549676" y1="876.100982377130094" x2="426.202262077549676" y2="517.028654935630129" xlink:href="#linear-gradient-16"/>
    <linearGradient id="linear-gradient-19" x1="376.503285552526904" y1="876.100982377106448" x2="376.503285552526904" y2="517.028654935640816" xlink:href="#linear-gradient-16"/>
    <linearGradient id="linear-gradient-20" x1="420.722033741633823" y1="876.100982377113723" x2="420.722033741633823" y2="517.028654935635132" xlink:href="#linear-gradient-16"/>
    <linearGradient id="linear-gradient-21" x1="345.639825477865998" y1="876.100982377120999" x2="345.639825477865998" y2="517.028654935628879" xlink:href="#linear-gradient-16"/>
    <linearGradient id="linear-gradient-22" x1="305.318058069889958" y1="876.100982377110086" x2="305.318058069889958" y2="517.028654935638542" xlink:href="#linear-gradient-16"/>
    <linearGradient id="linear-gradient-23" x1="309.506562789843883" y1="876.100982377110086" x2="309.506562789843883" y2="517.028654935641043" xlink:href="#linear-gradient-16"/>
    <linearGradient id="linear-gradient-24" x1="350.132505198867875" y1="876.100982377104629" x2="350.132505198867875" y2="517.028654935660938" xlink:href="#linear-gradient-16"/>
    <linearGradient id="linear-gradient-25" x1="363.34008628553056" y1="875.68977865598481" x2="363.34008628553056" y2="517.095448360613091" gradientTransform="translate(424.5 918.579643143066278) scale(1 -1)" gradientUnits="userSpaceOnUse">
      <stop offset="0" stop-color="#f5ebe0" stop-opacity=".899999976158142"/>
      <stop offset=".000099999997765" stop-color="#f5ebe0" stop-opacity=".899999976158142"/>
      <stop offset=".291667022705078" stop-color="#f5ebe0" stop-opacity=".929162979125977"/>
      <stop offset=".5" stop-color="#f5ebe0" stop-opacity=".949999988079071"/>
      <stop offset=".651042022705078" stop-color="#f5ebe0" stop-opacity=".965107023715973"/>
      <stop offset=".999899978637695" stop-color="#f5ebe0"/>
      <stop offset="1" stop-color="#b4933f"/>
      <stop offset="1" stop-color="#f5ebe0"/>
    </linearGradient>
    <linearGradient id="linear-gradient-26" x1="33.976283357427747" y1="388.449962782067814" x2="33.976283357427754" y2="261.983714259258363" xlink:href="#linear-gradient-3"/>
  </defs>
  <path class="cls-5" d="m238.186461074711588,539.458563464527288c-57.511778688228333,0-101.881358839016684-42.531506168077613-101.881358839016684-98.523004070277238,0-24.087944644357776,6.83567772493825-42.560941155476939,16.471128999110078-55.508533413745681,13.248585297047612-17.766044157743636,31.781754783131873-25.925986586080398,44.428375363281702-25.925986586080398l-.02939226608305,3.236524253044081c-12.044677223908366,0-29.162553560440756,7.422230726736416-42.110156499038567,24.586331528239498-9.334479596052915,12.646620580149829-15.702593867308678,30.034666525260036-15.702593867308678,53.522077616837123,0,55.102552738491795,43.05787551458161,95.315829361999931,99.365746129671606,95.315829361999931,60.823919672325246,0,97.5738859316034-42.170340154334554,97.5738859316034-95.767991780910961,0-45.166129786198326-22.221898879355649-90.287466271543963-80.019248210932346-90.287466271543963l-33.784978696956387.151190740790298v102.196332428776259c0,11.140352386089944,4.894004548553312,14.528067379924323,11.2159263958265,14.528067379924323v3.312140984096914l-37.878278962021795.225397668382357-.060194335624146-3.37233531972015c6.323310290074005,0,11.38112972858471-3.552918326593499,11.38112972858471-14.693270712683443v-176.163828401015053c0-11.141740828889851-4.366268119905726-15.176235201134659-11.577113770228607-15.176235201134659l-.060194335623237-2.589787595949929h53.190303869175295c50.887475359375458,0,77.687006074392229,15.65778988612692,77.687006074392229,45.467101464319057,0,24.992269482178926-19.27231235180443,40.349087690184206-56.006877576311126,44.263172030521673,48.779242448415971,5.72136693383527,83.105991526646903,40.951052407083807,83.105991526646903,92.139520805236316,0,66.54524388484424-51.866007124789576,99.140327100631112-114.798159708074309,99.140327100631112l-.466153650220804-.060194335623237-.044793300852689-.015379674114229Zm10.567779935272483-278.074568825783899h-26.271772925711957v85.350014143624321l26.331967261336104.211385076414444c47.876306053397457,0,62.1943981603672-18.278379551618855,62.1943981603672-42.968288912876233,0-24.691297804058195-13.850528653288166-41.839976210131681-62.254592495991346-42.593110307162533Z"/>
  <path class="cls-4" d="m420.522409025011257,352.1390030033117l33.934780994944958-90.302845945658191h1.807239872179707l74.072526330031906,193.011513768309669c4.21505601845638,11.140352386089944,11.817869752065235,16.228973894139926,18.141180042141059,16.228973894139926v3.011169305980729h-39.143791174246871v-3.011169305980729c6.323310290075824,0,9.258905586317269-4.199676344342151,5.043806846540974-15.040466855771228-18.668959192104012-48.77924244841779-42.080753552629176-91.250554280871256-92.364854391643348-100.886005555042175l-39.145200977705827,100.870625880927946c-3.914084340337467,10.8407477901128,1.205296515940972,15.055846529885457,7.528606806014977,15.055846529885457v3.011169305980729l-28.079012797892574-.285592004009231c-72.793001525838918.285592004009231-69.179867502963134-123.169508573481835,37.112520715824758-123.169508573481835,6.925296367630835,0,14.75346504830668.603353159700418,21.076775338380685,1.506289554718933h.015422395429596Zm-1.506310915377981,3.011169305978001c-6.020928808493409-.904346198479288-12.947592258268742-1.506289554718933-19.571874226463478-1.506289554718933-102.978858791888342,0-105.388084741625789,117.432761965532336-37.638890062327846,117.432761965532336,6.323310290075824,0,13.776343086353336-3.898704666222329,18.292370782931357-15.341438533891051l38.918393505859967-100.585033876922353Zm4.517480221355072-3.011169305978001c37.939861740447668,7.226225324435291,59.317608756948175,31.616551450372754,76.782681236572898,64.738004012662714l-51.188468398155237-132.487198691961567-25.594212838417661,67.749194679298853Z"/>
  <path class="cls-3" d="m591.176255568606393,262.694300151819334c-6.323310290075824,0-11.44273386767054,4.577631835662032-11.44273386767054,15.717984221751067v193.101100370016866c49.171210531703764,8.551953232938104,36.961372696350736,7.81419881002148,63.368913967424305,9.439488593186979,18.923749126568509,1.159114772282919,25.307253752265751-1.549673052111757,32.835860558283457-3.055983967489738,28.665619201336085-6.292508220532909,66.739839483683681-39.565151523613167,50.179177284513571-81.72147908597708h2.875315517983836c7.528692248646621,19.573284029925162,11.217336199284546,55.49452082177686-30.576415545876444,78.288949430633693-16.562114723947161,9.033507917931274-51.174455806183687,14.393708838022576-76.768668644601348,8.371370226064755-20.30962864938374-4.517437500035157-38.36126481113206-8.742319421398861-67.793987980152451-8.742319421398861v-3.118955188718246c6.323310290074005,0,10.522986634417975-5.28740379595547,10.522986634417975-16.427756182045414v-176.119013739502407c0-11.141740828890761-5.209010179298275-15.718005582409205-11.532320469374099-15.718005582409205v-2.75496956805091h38.331872545051738v2.739589893938501Z"/>
  <g>
    <circle class="cls-10" cx="430.659034748997783" cy="398.539821571532912" r="397.464335580335387"/>
    <path class="cls-16" d="m88.900557005371411,464.784136499573833c-38.541970641790613-27.100523753797461-53.195900361699387-57.461410255509691-55.705067492345734-69.255484234018695,0,37.638890062328755,14.302557568083103,54.952771801160452,25.594228858913084,63.986279719091726,9.03321954904095,7.22622532443711,23.837779292454798,6.523502381442086,30.11083863343265,5.269204514926969Z"/>
    <path class="cls-7" d="m12.870594668030208,478.33367211408131c.752722904353504,4.517437500038795-.602233060171784,13.700726355302322-12.044391525101673,14.302712432858243-.250916312552363-3.764303403007943,1.80665912927816-11.893486483120796,12.044391525101673-14.302712432858243Z"/>
    <path class="cls-17" d="m18.892790430581044,513.714526967462916c14.453187591587266,9.635493995490833,19.822891334623819-23.838751202416461,21.077616414308977-39.14515825638955-2.408932240682589,8.43156456169163-16.310144396402393,22.332483008358395-23.335921301569215,25.59421283841948-7.828897613146182,4.818451899474894-1.756585740654373,11.040939881480881,2.258304887260238,13.55094541797007Z"/>
    <path class="cls-23" d="m38.464822191901476,464.784136499573833c12.044394195183486,19.06930065351844,43.96192800400604,59.769771175855567,75.277240768028605,70.007165806269768-18.568446613580818-1.504858390599111-59.619584386017777-17.614810695635242-75.277240768028605-70.007165806269768Z"/>
    <path class="cls-19" d="m12.870594668030208,602.541885427945999c31.315306088816214-18.06697311454991,33.122006604368835-84.311288042586966,30.110842638557187-115.174705395929777,5.018473105571502,22.081879762954486,12.797111759373365,71.663257658976363,3.763886870166061,93.343386157055647-9.033224889206394,21.680128498082922-26.347087937464494,23.586780874873511-33.874729508723249,21.83131923887413Z"/>
    <path class="cls-9" d="m146.864487432180795,604.046786539861387c-45.769055732729612,1.203886712479289-72.266626839171295-30.110283256311959-79.794267075390053-45.919263883228268,18.454070967697589,40.349087690181477,44.324081948205276,51.941602495182451,54.95234458799132,52.694736592213303,10.84020309332027,1.805872790038848,21.07761908439079-3.764303403007943,24.841922487398733-6.775472708985035Z"/>
    <path class="cls-8" d="m161.16718918470815,732.771070271618555c5.519775719337304-1.003694621114846,16.560726281144525-.601943356243282,16.560726281144525,9.033507917931274-2.598203695396478.587930764268094-8.042384044338178.730705405614572-10.178620778578079-3.016808519820188.841332255935413,2.064892134883848,1.310294832746877,5.862817214354436-1.866056445331196,9.037694606995501-3.011169305977091-.250517802767718-8.129172399781964-3.613112662216736-4.51604905723525-15.054394005106587-17.578444174559081-13.934497401813132-32.307696916465829-32.732304085926444-44.317225176831016-52.694736592216941,10.2556045917745,5.771735366553912,31.369622238232296,18.216796773194801,33.777438384509878,21.83131923887413,8.431543201032582,1.203886712479289,10.539786792321138,7.527197002553294,10.539786792321138,10.538366308530385-7.829599844793847-1.203886712479289-10.28780578444821-7.527197002553294-10.539786792321138-10.538366308530385-2.407816146277582-3.614522465679329-23.521833792735379-16.059583872320218-33.777438384509878-21.83131923887413,12.009528260365187,19.962432506290497,26.738781002271935,38.760239190403809,44.317225176831016,52.694736592216941Z"/>
    <path class="cls-24" d="m138.584124291607623,736.533963871163905c0,5.270614318385924,1.805862109708869,16.261185767143616,9.032108794801388,18.067015835866187,0-5.269161793610692-1.80586210970705-16.259733242368384-9.032108794801388-18.067015835866187Z"/>
    <path class="cls-25" d="m99.439361207402726,689.109841597332888c-1.756444226291933,4.014863927091938-2.860533942308393,14.603641389661789,6.774917331863435,24.841078741388628,1.003726662102054-6.523502381438448,1.053977611199116-20.62602272292861-6.774917331863435-24.841078741388628Z"/>
    <path class="cls-11" d="m33.195347998664147,420.369731006944676c-.752720234272601,14.052109187454334-5.871567074088489,45.317320526988624-20.324753330633939,57.963941107136634m0,0c.752722904353504,4.517437500038795-.602233060171784,13.700726355302322-12.044391525101673,14.302712432858243-.250916312552363-3.764303403007943,1.80665912927816-11.893486483120796,12.044391525101673-14.302712432858243Zm64.738429890791849,103.88320499036854c4.686560513629047,21.815896843439987,17.512087288959265,61.742214380799851,39.240939449055077,97.859456574951764m44.317225176831016,52.694736592216941c5.519775719337304-1.003694621114846,16.560726281144525-.601943356243282,16.560726281144525,9.033507917931274-2.760587421234959.62432932633601-8.732536239811452.746170522361354-10.538398349520321-3.76434612432422,1.003726662102963,1.756871439458337,2.106844468156851,6.172119549282797-1.506278874388954,9.785232211499533-3.011169305977091-.250517802767718-8.129172399781964-3.613112662216736-4.51604905723525-15.054394005106587Zm0,0c-17.578444174559081-13.934497401813132-32.307835760746457-32.732304085926444-44.317225176831016-52.694736592216941m21.734160283730489,31.616551450373663c-1.506278874388954,2.760608781893097-3.6145224656766,11.592514804997336,0,24.841078741388628m0,0c0,5.270614318385924,1.805862109708869,16.261185767143616,9.032108794801388,18.067015835866187,0-5.269161793610692-1.80586210970705-16.259733242368384-9.032108794801388-18.067015835866187Zm-21.734160283730489-56.457630191762291c10.2556045917745,5.771735366553912,31.369622238232296,18.216796773194801,33.777438384509878,21.83131923887413m0,0c.251981007872928,3.011169305977091,2.710186947527291,9.334479596051096,10.539786792321138,10.538366308530385,0-3.011169305977091-2.108243591288556-9.334479596051096-10.539786792321138-10.538366308530385Zm-44.413123853120851-39.145200977705827c-2.760160208064917,1.003737342431123-7.979380782123371,7.678430464660778-6.774917331863435,26.347389656762971m0,0c-1.756444226291933,4.014863927091938-2.860533942308393,14.603641389661789,6.774917331863435,24.841078741388628,1.003726662102054-6.523502381438448,1.053977611199116-20.62602272292861-6.774917331863435-24.841078741388628ZM33.195347998664147,395.528652265555138c2.509308645007877,11.794073978509005,17.163238364916651,42.154960480221234,55.705209006707264,69.255484234018695-6.273059340977852,1.254297866515117-21.077619084391699,1.957020809510141-30.11083863343265-5.269204514926969-11.291671290829981-9.033507917931274-25.594370373274614-26.347389656762971-25.594370373274614-63.986279719091726Zm6.775058846225875,79.040716445518228c-1.254725079685159,15.306407053973089-6.624428822721711,48.780652251880383-21.077616414308977,39.14515825638955-4.01489062791461-2.510005536489189-10.08720250040642-8.732493518495176-2.258304887260238-13.55094541797007,7.025776905166822-3.261729830061086,20.926989060886626-17.16264827672785,23.335921301569215-25.59421283841948Zm-1.505584652988546-9.785232211499533c12.044394195183486,19.06930065351844,43.96192800400604,59.769771175855567,75.277240768028605,70.007165806269768-18.568446613580818-1.504858390599111-59.619584386017777-17.614810695635242-75.277240768028605-70.007165806269768Zm4.516615114685919,22.583043532442389c3.011163965811647,30.863417353342811,1.204463450259027,97.107732281379867-30.110842638557187,115.174705395929777,7.527641571258755,1.755461635999382,24.841504619516854-.151190740791208,33.874729508723249-21.83131923887413,9.033224889207304-21.680128498079284,1.254586235405441-71.261506394101161-3.763886870166061-93.343386157055647Zm24.088783050203347,70.760342624616897c7.527640236218758,15.808980626916309,34.025211342660441,47.123150595707557,79.794267075390053,45.919263883228268-3.764303403007943,3.011169305977091-14.001719394078464,8.581345499023882-24.841922487398733,6.775472708985035-10.628262639786044-.753134097030852-36.49827362029373-12.345648902031826-54.95234458799132-52.694736592213303Z"/>
  </g>
  <circle class="cls-12" cx="446.448406291420952" cy="398.539821571532912" r="397.464367621322936"/>
  <path class="cls-14" d="m788.206841313730365,332.295528004150583c38.541890539319866,27.100502393137504,53.195900361699387,57.461388894851552,55.70449609472962,69.255462873359647,0-37.638890062327846-14.30266971153651-54.952771801160452-25.594170117099566-63.986279719092636-9.033507917933093-7.226225324434381-23.837384120273782-6.523481020782128-30.110325977630055-5.269183154267012Z"/>
  <path class="cls-1" d="m864.236431174588688,318.745971028984059c-.75317681834531-4.51604905723616.601943356241463-13.700747715958641,12.044677223910185-14.302691072198286.250517802767718,3.764303403007943-1.807282593497803,11.893486483118977-12.044677223910185,14.302691072198286Z"/>
  <path class="cls-2" d="m858.214092562634505,283.365094814945223c-14.452536091503134-9.635451274172738-19.822520193183664,23.838772563075509-21.078185141841459,39.145179617045869,2.409225949739266-8.431543201033492,16.310144396402393-22.332483008357485,23.336177629473241-25.594212838417661,7.829621205451986-4.818430538816756,1.756871439460156-11.0409612421372-2.257992487631782-13.550966778628208Z"/>
  <path class="cls-22" d="m838.64217561485475,332.295528004150583c-12.044677223908366-19.069322014175668-43.962200352401851-59.769792536516434-75.277780124655692-70.007208527586954,18.569589408809406,1.504879751259068,59.619990238528771,17.614853416953338,75.277780124655692,70.007208527586954Z"/>
  <path class="cls-6" d="m864.236431174588688,194.539146157923824c-31.315579772252022,18.065606032403593-33.121495283607146,84.30989959978524-30.110325977630055,115.173316953128051-5.018558548203146-22.080491320153669-12.797768599619303-71.663279019635411-3.764260681689848-93.343407517717424,9.033507917931274-21.680128498080194,26.347346935448513-23.586780874872602,33.874586659319903-21.829909435410627Z"/>
  <path class="cls-15" d="m730.242900206591912,193.032856603204891c45.768115863756975-1.203908073138336,72.266696261312973,30.111671699114595,79.793850542548171,45.919263883229178-18.454754508768019-40.349087690185115-44.324733448289408-51.94160249518427-54.952771801161362-52.693348149412486-10.839337986650207-1.807261232837845-21.076732617062589,3.762914960206217-24.841078741386809,6.774084266183309Z"/>
  <path class="cls-20" d="m715.940230495051765,64.309000084618674c-5.519765039007325,1.003721321937519-16.560704920486387.602231725129968-16.560704920486387-9.033224889206394,2.598182334739249-.58823515365475,8.040963560550153-.731020475329387,10.178567376931824,3.015788548375895-.841310895275456-2.064982917681846-1.31026279175785-5.861770542088379,1.866067125662084-9.037982975886734,3.011169305977091.250998417584015,8.129183080111034,3.613262186827342,4.516070417892479,15.055419316717234,17.578454854887241,13.933824541068134,32.306714326176007,32.73213320065679,44.316360070162773,52.694181215093522-10.25559391144634-5.771340194371078-31.368725090575026-18.217223986363024-33.777951040312473-21.830475492861297-8.43019747955077-1.204474130588096-10.5384090298503-7.527645576382383-10.5384090298503-10.538814882359475,7.828168680674935,1.204468790423562,10.28780578444821,7.527784420662101,10.5384090298503,10.538814882359475,2.409225949737447,3.613251506498273,23.522357128866133,16.059135298490219,33.777951040312473,21.830475492861297-12.009645743986766-19.962048014436732-26.737905215275532-38.760356674025388-44.316360070162773-52.694181215093522Z"/>
  <path class="cls-21" d="m738.52331674881043,60.545252058731421c0-5.269476863319142-1.807282593497803-16.259888107139886-9.033507917933093-18.066591292775229,0,5.269474193237329,1.807197150863431,16.259890777222608,9.033507917933093,18.066591292775229Z"/>
  <path class="cls-18" d="m777.667065201737387,107.96981222606064c1.756871439461975-4.014746443470358,2.861388368648477-14.603812274927805-6.774062905524261-24.841500614393226-1.003694621113027,6.524052418395513-1.054105775150674,20.626006702436825,6.774062905524261,24.841500614393226Z"/>
  <path class="cls-13" d="m843.911337408459985,376.709912136122512c.753176818348948-14.052109187455244,5.87119059248289-45.317320526990443,20.325093766128703-57.963941107138453m0,0c-.75317681834531-4.51604905723616.601943356241463-13.700747715958641,12.044677223910185-14.302691072198286.250517802767718,3.764303403007943-1.807282593497803,11.893486483118977-12.044677223910185,14.302691072198286Zm-64.738004012660895-103.881795186908676c-4.686870243180238-21.817328007559809-17.512664026740822-61.743645544916035-39.241836596713256-97.860994542363187m-44.316360070162773-52.694181215093522c-5.519765039007325,1.003721321937519-16.560704920486387.602231725129968-16.560704920486387-9.033224889206394,2.759156257116047-.624911404281193,8.732493518495176-.747121071665788,10.538366308532204,3.763892210330596-1.003737342431123-1.756444226291023-2.108254271617625-6.172685606733467,1.506268194061704-9.786086637841436,3.011169305977091.250998417584015,8.129183080111034,3.613262186827342,4.516070417892479,15.055419316717234Zm0,0c17.578454854887241,13.933824541068134,32.306714326176007,32.73213320065679,44.316360070162773,52.694181215093522m-21.733273816404107-31.616567470867267c1.506268194061704-2.760165548229452,3.613112662218555-11.592642968948894,0-24.841361770113508m0,0c0-5.269476863319142-1.807282593497803-16.259888107139886-9.033507917933093-18.066591292775229,0,5.269474193237329,1.807197150863431,16.259890777222608,9.033507917933093,18.066591292775229Zm21.733273816404107,56.457929240980775c-10.25559391144634-5.771340194371078-31.368725090575026-18.217223986363024-33.777951040312473-21.830475492861297m0,0c-.25060324540209-3.011030461697374-2.710240349175365-9.334346091935913-10.5384090298503-10.538814882359475,0,3.011169305977091,2.108211550299529,9.334340751771379,10.5384090298503,10.538814882359475Zm44.414362771311062,39.144197026756956c2.759198978434142-1.003715981773894,7.979402142782419-7.678270259723831,6.774062905524261-26.347090607547216m0,0c1.756871439461975-4.014746443470358,2.861388368648477-14.603812274927805-6.774062905524261-24.841500614393226-1.003694621113027,6.524052418395513-1.054105775150674,20.626006702436825,6.774062905524261,24.841500614393226Zm66.244272206722599,293.581178651449591c-2.508595733030234-11.794073978508095-17.162605555409755-42.154960480222144-55.70449609472962-69.255462873359647,6.272941857356273-1.254297866515117,21.076818059696961-1.957042170167369,30.110325977630055,5.269183154267012,11.291500405563056,9.033507917932184,25.594170117099566,26.34738965676479,25.594170117099566,63.986279719092636Zm-6.775429987666939-79.040716445519138c1.255664948657795-15.306407053970361,6.625649050338325-48.780630891218607,21.078185141841459-39.145179617045869,4.014863927091938,2.510005536491008,10.087613693083767,8.732536239811452,2.257992487631782,13.550966778628208-7.026033233070848,3.261729830060176-20.926951679733975,17.16266963738417-23.336177629473241,25.594212838417661Zm1.506268194061704,9.78525357215949c-12.044677223908366-19.069322014175668-43.962200352401851-59.769792536516434-75.277780124655692-70.007208527586954,18.568136884032356,1.504879751259068,59.619990238528771,17.614853416953338,75.277780124655692,70.007208527586954Zm-4.516070417896117-22.583064893098708c-3.011169305977091-30.863417353342811-1.205253794621967-97.107710920724458,30.110325977630055-115.173316953128051-7.527239723871389-1.756871439461975-24.841078741388628.149780937330434-33.874586659319903,21.829909435410627-9.033507917929455,21.680128498082013-1.254297866513298,71.262916197563754,3.764260681689848,93.343407517717424Zm-24.08935444781855-70.760342624617806c-7.527154281235198-15.807592184114583-34.025734678791196-47.123171956367514-79.793850542548171-45.919263883229178,3.76434612432422-3.011169305977091,14.001740754736602-8.581345499021154,24.841078741386809-6.774084266183309,10.628038352871954.751745654228216,36.498017292393342,12.344260459227371,54.952771801161362,52.693348149412486Z"/>
  <path class="cls-26" d="m358.984530703325618,573.288335462338182v-29.07574384433974c0-.408757560860977-.237957735575947-.613136341289646-.716735534962936-.613136341289646h-2.404996539356944v-.922524118854199h10.441773410841051v.922524118854199h-2.404996539356034c-.478777799388808,0-.716778256281032.204378780428669-.716778256281032.613136341289646v29.07574384433974c0,.477367995925306.238000456892223.716778256279213.716778256281032.716778256279213h2.404996539356034v.921114315391605h-10.441773410841051v-.921114315391605h2.404996539356944c.478777799386989,0,.716735534962936-.239410260353907.716735534962936-.716778256279213Zm35.035111235066324,1.637892571670818l-19.247106774786516-28.563387089801836v26.925494518131018c0,.477367995925306.237957735575947.716778256279213.716735534962936.716778256279213h2.404996539356944v.921114315391605h-7.984955913989324v-.921114315391605h2.406406342817718c.477367995927125,0,.716735534962936-.239410260353907.716735534962936-.716778256279213v-29.07574384433974c0-.408757560860977-.239367539035811-.613136341289646-.716735534962936-.613136341289646h-2.406406342817718v-.922524118854199h7.524420116950751l16.482311303829192,24.366487631064956v-22.727227977247821c0-.478777799387899-.237957735575037-.716735534962936-.715325731502162-.716735534962936h-2.406406342817718v-.922524118854199h7.984955913989324v.922524118854199h-2.404996539356034c-.478777799387899,0-.716735534963846.204378780428669-.716735534963846.613136341289646v30.713636416010559h-1.637892571673547Zm18.98535326565252.614546144752239c-2.252438716422148,0-4.504877432846115-.614546144752239-6.757316149268263-1.843638434249442-.750314490109304-.375178605710971-1.261304162499982-.562767908570095-1.535660460142026-.562767908570095-.510946951073493,0-.783936166572857.358389128141425-.81892492517909,1.075124663107999l-.050411154034919.716735534959298h-.972935272889117v-8.549133626016555h.921157036709701c.307977974105597,2.628984404280345,1.27950344353394,4.573445146597805,2.918763097351075,5.836159112557652,1.671471526819914,1.229092289497203,3.634131550171332,1.842228630786849,5.886527545277204,1.842228630786849,2.286017671568516,0,4.009310155884123-.613136341289646,5.169834731630544-1.842228630786849,1.19410353089097-1.229135010817117,1.791860198067297-2.679395558316173,1.791860198067297-4.350867085133359,0-2.662606080742989-1.535703181458302-4.675634536815778-4.60706682306045-6.04053789298996l-6.092316129166647-2.713017234778818c-1.842271352103126-.818924925177271-3.22396418585231-1.927628543428-4.146488304705599-3.327520658207504-.921114315393424-1.433513791245787-1.381692833748275-2.969174251389632-1.381692833748275-4.607066823064088,0-2.490396451994457.835714402751364-4.623813579313719,2.508595733031143-6.397474496348877,1.671471526819914-1.808692396956758,4.077877869636723-2.713017234778818,7.217851946306837-2.713017234778818,1.842271352103126,0,3.736320940385667.613179062605923,5.682148764847625,1.842271352103126.648167821211246.375178605714609,1.091914140676636.562767908570095,1.329914597569768.562767908570095.443746319464481,0,.683156579817478-.358389128137787.716735534962936-1.075124663104361l.051820957495693-1.023346426922217h.972892551572841v8.855744517979474h-.922524118853289c-.272989215498455-2.627617322137667-1.125493095823003-4.555245865565666-2.559006887066971-5.784380876379146-1.398482311321459-1.26267124464357-3.121732074320789-1.894049588281632-5.169792010314268-1.894049588281632-2.01302845607006,0-3.583720396135504.562767908570095-4.709213491957598,1.689670807852963-1.091956861993822,1.091914140677545-1.637892571673547,2.354628106637392-1.637892571673547,3.788099176563264,0,1.398525032640464.37517860571279,2.661196277284034,1.125493095822094,3.786732094420586.785345970032722,1.126902899286506,1.927671264745186,2.014438259531744,3.429752769741754,2.662606080742989l6.142727283202476,2.712974513462541c2.048059935993479.921114315391605,3.583720396135504,2.132050045172946,4.60706682306045,3.634131550170423,1.058292464213991,1.467092746388516,1.586071614178763,3.054574164027144,1.586071614178763,4.761034449456929,0,2.423195820389083-.971525469430162,4.521624189099384-2.917396015208396,6.295285106134543-1.94446074231746,1.775070720494114-4.538456387990664,2.662606080742989-7.780577133559746,2.662606080742989Zm40.68504812691117-.614546144752239h-10.493594368337654v-.921114315391605h3.3275633795256l-3.583720396132776-9.879048223589052h-11.262150860799011l-3.582310592673821,9.879048223589052h3.327520658209323v.921114315391605h-7.730208700841104v-.921114315391605h1.894049588282542c.477367995928034,0,.802135447606815-.239410260353907.972935272890027-.716778256279213l11.260741057337327-30.611404304483585h1.74144904402965l11.260741057338237,30.611404304483585c.170799825284121.477367995925306.495567276962902.716778256279213.972935272890027.716778256279213h1.894049588281632v.921114315391605Zm-16.329753480895306-26.208758983168082l-5.118013774133942,13.975082652945275h10.185616394232056l-5.067602620098114-13.975082652945275Zm30.426677329862287,26.208758983168082v-.921114315391605h2.406406342817718c.477367995925306,0,.716735534962936-.239410260353907.716735534962936-.716778256279213v-29.07574384433974c0-.408757560860977-.23936753903763-.613136341289646-.716735534962936-.613136341289646h-2.406406342817718v-.922524118854199h10.443183214301826v.922524118854199h-2.406406342817718c-.477367995927125,0-.716735534962936.204378780428669-.716735534962936.613136341289646v29.280165346084686h10.186983476376554c.887535360247057,0,1.364903356174182-.375178605710971,1.433513791243968-1.125535817140189l.767146688998764-5.990126738950494h1.177314053318696v2.406406342815899c0,3.002753206532361.15396762639466,5.204780768919591.460535797039483,6.603305801556417-1.091914140677545-.306610891959281-2.985963728959177-.46057851835576-5.682148764848534-.46057851835576h-15.663386378650102Zm36.19841269641438-22.114091635958175h6.501073690027624v.922524118857837h-1.894049588283451c-.307977974103778,0-.545935709680634.238000456887676-.716735534962936.716735534959298l-8.855701796665016,23.700163250137848c-.102189390214335.306610891959281-.272989215498455.767146688998764-.512356754534267,1.381692833747366l-.562767908568276,1.38173555506728c-.102189390214335.307935252785683-.256199737927091.716735534962936-.46057851835576,1.229092289497203-.204378780430488.545935709676996-.37517860571279.95473599185425-.512356754534267,1.227682486038248-.135768345360702.307977974101959-.306568170644823.666367102243385-.510946951073493,1.075124663104361-.239410260353907.512356754534267-.580967189602234.989724750459573-1.024713509068533,1.433513791242149-.443789040782576.477325274612667-.904367559138336.716735534966574-1.381735555065461.716735534966574-.477325274610848,0-.989682029145115-.306568170646642-1.535660460142026-.92115703671152-.512356754534267-.580924468285957-.818924925177271-1.212302811927657-.921114315393424-1.89404958828527,3.104942596746696-1.331281679711537,5.221570246492774-3.548731637525634,6.347106063632964-6.655084037734923l.870703161357596-2.354585385321116-7.576198353130167-20.320864355748199c-.170799825284121-.478735078071622-.410167364319932-.716735534959298-.716735534964755-.716735534959298h-1.894049588281632v-.922524118857837h8.701734170268537v.922524118857837h-2.559006887066062l5.886527545277204,16.17574313318255,5.938348502771987-16.17574313318255h-2.610785123246387v-.922524118857837Zm10.914954717705768,19.605495902927942c-1.910881787171093-2.081638891137118-2.866984861171659-4.930424471276638-2.866984861171659-8.547766543877515,0-3.617299351280963.956103074000566-6.4674947348758,2.866984861171659-8.549133626016555,1.910839065856635-2.081638891140756,4.40123551785473-3.12173207431988,7.472599159455058-3.12173207431988,3.071363641602147,0,5.563169897059197,1.040093183179124,7.474051684233928,3.12173207431988,1.945827824460139,2.081638891140756,2.917353293889391,4.931834274735593,2.917353293889391,8.549133626016555,0,3.617342072600877-.971525469429253,6.466127652740397-2.917353293889391,8.547766543877515-1.910881787174731,2.081638891140756-4.40268804263178,3.123141877782473-7.474051684233928,3.123141877782473-3.071363641600328,0-5.561760093598423-1.041502986641717-7.472599159455058-3.123141877782473Zm2.865575057710885-16.226154287222016c-1.227725207354524,1.877260110712086-1.842271352103126,4.436266997778148-1.842271352103126,7.678387743344501,0,3.242163466886268.614546144748601,5.817959831529151,1.842271352103126,7.728798897383967,1.229092289499022,1.877260110708448,2.764795470959143,2.815206624989514,4.607024101744173,2.815206624989514,1.8436811555639,0,3.379341615705926-.937946514281066,4.60706682306045-2.815206624989514,1.262713965961666-1.910839065854816,1.894049588283451-4.486635430497699,1.894049588283451-7.728798897383967,0-3.242120745566353-.631335622321785-5.801127632632415-1.894049588283451-7.678387743344501-1.227725207354524-1.910839065854816-2.76338566749655-2.866984861171659-4.60706682306045-2.866984861171659-1.84222863078503,0-3.377931812245151.956145795316843-4.607024101744173,2.866984861171659Zm40.202083638459953,3.788099176566902v13.410990383545141c0,.410167364319932.238000456893133.614546144748601.716778256281032.614546144748601h2.404996539356944v.921114315391605h-9.214090924804623v-.921114315391605h1.689670807852963c.477367995928944,0,.716735534962936-.204378780428669.716735534962936-.614546144748601v-14.077357485788525c0-1.740039240572514-.391968083285974-3.019542684109183-1.177314053318696-3.838467609286454-.750314490111123-.85395640509887-1.758238521604653-1.279503443533031-3.0209524875645-1.279503443533031-1.773660917035158,0-3.240753663425494,1.056925382072222-4.401278239171006,3.173553031818301-1.160481854429236,2.081638891137118-1.740039240572514,5.084392097669479-1.740039240572514,9.00830234091336v6.911241054345737c0,.477367995925306.237957735576856.716778256279213.715325731503981.716778256279213h1.689670807852963v.921114315391605h-9.214090924804623v-.921114315391605h2.406406342815899c.477367995930763,0,.716778256282851-.204378780428669.716778256282851-.614546144748601v-18.939171522000834c0-.478735078071622-.239410260352088-.716735534959298-.716778256282851-.716735534959298h-2.406406342815899v-.922524118857837h2.508595733030234c2.048059935994388,0,3.480163923777582-.102189390214335,4.300498652417446-.306568170643004v6.961652208381565c1.159114772286557-4.846434362094442,3.719488741497116-7.268220379024569,7.676977939885546-7.268220379024569,1.775070720495933,0,3.277152225489772.648125099894969,4.504877432844296,1.944418021001184,1.229092289499022,1.262713965959847,1.843638434247623,3.208584511736262,1.843638434247623,5.836159112557652Zm-124.157802159825223,48.72605440877669c0-1.94446074231746-.442379237323621-3.480121202461305-1.329914597569768-4.60706682306045-.853913683785322-1.125493095820275-2.064849413565753-1.688261004394008-3.634131550171332-1.688261004394008-1.535660460142935,0-2.712974513460722.391968083287793-3.533309242099676,1.177314053318696-.81892492517818.783936166571948-1.227725207355434,1.773660917035158-1.227725207355434,2.969174251389632,0,1.194103530888242.221210979320858,2.251028912960464.664957298785339,3.173553031814663-.579557386143279.510946951075312-1.364903356175091.767146688998764-2.354628106638302.767146688998764-1.227682486037338,0-1.842228630785939-.921114315391605-1.842228630785939-2.763385667494731,0-1.877260110712086.664914577468153-3.412963292172208,1.996238978497786-4.60706682306045,1.364903356175091-1.229092289500841,3.446542247314937-1.843638434245804,6.24491667341681-1.843638434245804,2.831996102565427,0,5.034023664952656.66632438092347,6.603305801557326,1.996238978495967,1.604270895211812,1.331281679711537,2.406406342817718,2.918763097350165,2.406406342817718,4.761034449453291,0,2.5590068870697-1.195513334352654,5.204780768919591-3.583720396135504,7.934587481267954-.239410260352997.272989215500274-.802135447606815.887535360248876-1.689670807852963,1.842271352106764-.852546601642644.921114315391605-1.348113878602817,1.467092746388516-1.483882223964429,1.63784985035818l-7.626609507165085,8.241198373230873h11.773055090554408c.818967646495366,0,1.296335642423401-.375178605714609,1.433513791243968-1.125535817140189l.664957298784429-4.453056475351332h1.177314053319606v2.456817496855365c0,3.002753206528723.170757103966935,5.271981400524965.512356754533357,6.807684581985086-1.160524575744603-.306610891962919-3.12318459909693-.46057851835576-5.887980070054255-.46057851835576h-14.588261715546651l11.620497267620522-12.797811320939218c2.456817496852636-2.729806712348363,3.68454270420807-5.868370985561342,3.68454270420807-9.418469705233292Zm19.191099128225687,22.830827170921111c-3.139931355353838,0-5.698938242421718-1.331281679711537-7.678387743344501-3.992477956995572-1.945870545780053-2.696185035885719-2.917396015207487-6.398927021124109-2.917396015207487-11.108140513086255,0-4.744244971880107.971525469427434-8.446944235802221,2.917396015207487-11.108140513086255,1.979449500922783-2.696227757205634,4.538456387990664-4.044298914486717,7.678387743344501-4.044298914486717,3.13856427320934,0,5.698980963737995,1.348071157281083,7.678430464660778,4.044298914486717,1.978039697463828,2.661196277284034,2.967764447927038,6.363895541206148,2.967764447927038,11.108140513086255,0,4.709213491962146-.989724750463211,8.411955477200536-2.967764447927038,11.108140513086255-1.979449500922783,2.661196277284034-4.539866191451438,3.992477956995572-7.678430464660778,3.992477956995572Zm-4.76103444945511-25.338055821808666c-1.262713965961666,2.525427931923332-1.894049588283451,5.936938699313032-1.894049588283451,10.23743735172684,0,4.299046127642214.631335622321785,7.712009419810784,1.894049588283451,10.237394630414201,1.296292921108034,2.525427931923332,2.883774338746662,3.788099176563264,4.76103444945511,3.788099176563264,1.875850307249493,0,3.463331724886302-1.262671244639932,4.759624645994336-3.788099176563264,1.29770272456517-2.525385210603417,1.945870545776415-5.938348502771987,1.945870545776415-10.237394630414201,0-4.300498652413808-.648167821211246-7.712009419803508-1.945870545776415-10.23743735172684-1.296292921108034-2.525385210603417-2.883774338744843-3.788099176566902-4.759624645994336-3.788099176566902-1.877260110708448,0-3.464741528347076,1.262713965963485-4.76103444945511,3.788099176566902Zm32.960478639912253,2.507228650887555c0-1.94446074231746-.443789040782576-3.480121202461305-1.331324401029633-4.60706682306045-.853913683784413-1.125493095820275-2.064806692249476-1.688261004394008-3.634088828855965-1.688261004394008-1.535703181456483,0-2.71301723477518.391968083287793-3.531942159956088,1.177314053318696-.818924925177271.783936166571948-1.229092289497203,1.773660917035158-1.229092289497203,2.969174251389632,0,1.194103530888242.221168258003672,2.251028912960464.664914577468153,3.173553031814663-.579514664825183.510946951075312-1.364860634857905.767146688998764-2.354585385321116.767146688998764-1.227725207354524,0-1.842271352103126-.921114315391605-1.842271352103126-2.763385667494731,0-1.877260110712086.664957298784429-3.412963292172208,1.996238978497786-4.60706682306045,1.364903356174182-1.229092289500841,3.446542247314937-1.843638434245804,6.24491667341681-1.843638434245804,2.831996102566336,0,5.034023664953565.66632438092347,6.603305801558236,1.996238978495967,1.604270895209993,1.331281679711537,2.406406342817718,2.918763097350165,2.406406342817718,4.761034449453291,0,2.5590068870697-1.194103530893699,5.204780768919591-3.583720396136414,7.934587481267954-.239367539035811.272989215500274-.802135447605906.887535360248876-1.689670807852963,1.842271352106764-.852546601641734.921114315391605-1.346704075143862,1.467092746388516-1.483882223963519,1.63784985035818l-7.626609507165995,8.241198373230873h11.773097811870684c.81892492517909,0,1.296292921106215-.375178605714609,1.433471069927691-1.125535817140189l.664957298784429-4.453056475351332h1.177314053320515v2.456817496855365c0,3.002753206528723.170799825282302,5.271981400524965.512356754532448,6.807684581985086-1.160524575743693-.306610891962919-3.123141877780654-.46057851835576-5.886527545275385-.46057851835576h-14.589714240324611l11.620539988936798-12.797811320939218c2.45677477553545-2.729806712348363,3.685909786350749-5.868370985561342,3.685909786350749-9.418469705233292Zm23.592377367396693-7.422230726733687h1.688261004392189v21.192977320562932h4.30045593109935v1.586071614176035h-4.30045593109935v5.271981400528603c0,.410167364319932.256199737925272.614546144748601.768556492459538.614546144748601h3.531899438639812v.972935272890027h-12.337232802585277v-.972935272890027h3.531942159957907c.478735078069803,0,.716735534962936-.237957735575037.716735534962936-.716735534962936v-5.169792010314268h-14.127725918508077l16.227564090680971-22.779048934738967Zm-13.310168075473484,21.192977320562932h11.21032990330059v-15.715207336146705l-11.21032990330059,15.715207336146705Z"/>
</svg>